-----BEGIN PGP SIGNATURE-----

wsDzBAABCgAnBYJddkUSFiEEp1GZ+nscNwp5J8dKXA+z+ouCXaMJEFwPs/qLgl2j
AACb7QwAnI/M9qp+vviPM1RWJzsMmFI/0QSng0GIgC4LpfYe1pc3KR6Jiky3H5n0
16MFWEhnbwHnts/Ub0NSJ3WJ6Seyw66/VHoep55zblebI8DZWp1kOEO+yhVAETiM
dIse1ytP4LMUdQIuyVubSOT9dD4ON3fuvoAo2qc9I+jSjKdwu8/ERxWbEKO103Xm
Fw4DMn+KO0aTXksHvvIPxIdrPSRFSEWT7/H8LRZFIEZ3Ikd4mhJI4bDoMzFCpmUP
luB1R/fqQpamDJPSxaQlcnYS5m31JhAPFxzHFHz7Kgby8T+F4NhO20MGGMaF4J0b
pWSKk00D6I554m1rN21cfnnCvTRquyBGWkJY4iiUdiVmP73xllbaaG/Y477HfrXu
fhjopgEDIUKSusKPZey7FiNhUjA5u55Tgxj7DjlwaDpu7cKbYM2ZQj+4Duvq6NkS
H6LRxerdTUrLvRD1BbSlqVUZr0yBD7MpBWE8UphwyYG/XMjyZWDwinDEbwDIPV/7
BOArPXT4
=fChr
-----END PGP SIGNATURE-----
