@startuml

cloud clients {
    node MustEncrypt {
        agent wiki
    }
    node SignOnly {
        agent gitlab
    }
    node Fallback {
        agent blog
    }
    node Other {
        agent crm
    }
}

' note of wiki: koverto.example:465


node koverto_server {
    node docker_smtp_server {
        agent SMTPServer
    }
    folder QueueDirs
    node docker_koverto {
        node koverto {
            component ReadQueue
            component ProcessEmail
            component SMTPClient
        }
    }
    node docker_keys_store {
        agent ImportKeys
    }
    database KeysStore
}

wiki --> SMTPServer : SMTPS (koverto.example:465)
gitlab --> SMTPServer: SMTPS (koverto.example:465)
blog --> SMTPServer: SMTPS (koverto.example:465)
crm --> SMTPServer: SMTPS (koverto.example:465)


SMTPServer --> QueueDirs: fs write
ReadQueue <-- QueueDirs: fs read/write
ReadQueue --> ProcessEmail: function call
ProcessEmail <-- KeysStore: db connection
ProcessEmail --> SMTPClient: function call
ImportKeys --> KeysStore: db connection

cloud Internet {
    agent smtp_server
}

SMTPClient --> smtp_server: SMTPS (example.example:465)

footer NOTE: The arrows reflect how data flows, not who originate the requests

@enduml
